<?xml version="1.0" encoding="UTF-8" standalone="no"?>
<svg
   xmlns:dc="http://purl.org/dc/elements/1.1/"
   xmlns:cc="http://creativecommons.org/ns#"
   xmlns:rdf="http://www.w3.org/1999/02/22-rdf-syntax-ns#"
   xmlns:svg="http://www.w3.org/2000/svg"
   xmlns="http://www.w3.org/2000/svg"
   xmlns:sodipodi="http://sodipodi.sourceforge.net/DTD/sodipodi-0.dtd"
   xmlns:inkscape="http://www.inkscape.org/namespaces/inkscape"
   width="605.463203544mm"
   height="623.710380145mm"
   viewBox="0 0 605.463203544 623.710380145"
   version="1.1"
   id="svg2"
   inkscape:version="0.91 r13725"
   sodipodi:docname="boitier.svg">
  <metadata
     id="metadata167">
    <rdf:RDF>
      <cc:Work
         rdf:about="">
        <dc:format>image/svg+xml</dc:format>
        <dc:type
           rdf:resource="http://purl.org/dc/dcmitype/StillImage" />
      </cc:Work>
    </rdf:RDF>
  </metadata>
  <defs
     id="defs165" />
  <sodipodi:namedview
     pagecolor="#ffffff"
     bordercolor="#666666"
     borderopacity="1"
     objecttolerance="10"
     gridtolerance="10"
     guidetolerance="10"
     inkscape:pageopacity="0"
     inkscape:pageshadow="2"
     inkscape:window-width="1920"
     inkscape:window-height="993"
     id="namedview163"
     showgrid="false"
     inkscape:zoom="0.30204053"
     inkscape:cx="331.53372"
     inkscape:cy="1192.8288"
     inkscape:window-x="0"
     inkscape:window-y="0"
     inkscape:window-maximized="1"
     inkscape:current-layer="svg2" />
  <path
     inkscape:connector-curvature="0"
     style="fill:none;fill-rule:evenodd;stroke:#0000ff;stroke-width:0.34999999;stroke-miterlimit:4;stroke-dasharray:none"
     d="m 248.35651,500.0342 159,0 a 3,3 0 0 1 3,3 l 0,17 -165,0 0,-17 a 3,3 0 0 1 3,-3"
     id="Sketch017_w0000" />
  <circle
     id="circle6"
     style="fill:none;stroke:#ff0000;stroke-width:0.34999999;stroke-miterlimit:4;stroke-dasharray:none"
     r="2.5"
     cy="-510.03421"
     cx="255.85651"
     transform="scale(1,-1)" />
  <circle
     id="circle8"
     style="fill:none;stroke:#ff0000;stroke-width:0.34999999;stroke-miterlimit:4;stroke-dasharray:none"
     r="2.5"
     cy="-510.03421"
     cx="262.85651"
     transform="scale(1,-1)" />
  <circle
     id="circle10"
     style="fill:none;stroke:#ff0000;stroke-width:0.34999999;stroke-miterlimit:4;stroke-dasharray:none"
     r="2"
     cy="-510.03421"
     cx="272.85651"
     transform="scale(1,-1)" />
  <path
     inkscape:connector-curvature="0"
     style="fill:none;fill-rule:evenodd;stroke:#ff0000;stroke-width:0.34999999;stroke-miterlimit:4;stroke-dasharray:none"
     d="m 285.35651,508.0342 7,0 0,4 -7,0 0,-4"
     id="Sketch017_w0004" />
  <path
     inkscape:connector-curvature="0"
     style="fill:none;fill-rule:evenodd;stroke:#ff0000;stroke-width:0.34999999;stroke-miterlimit:4;stroke-dasharray:none"
     d="m 287.85651,501.5342 20,0 0,3 -20,0 0,-3"
     id="Sketch017_w0005" />
  <path
     inkscape:connector-curvature="0"
     style="fill:none;fill-rule:evenodd;stroke:#ff0000;stroke-width:0.34999999;stroke-miterlimit:4;stroke-dasharray:none"
     d="m 347.85651,501.5342 20,0 0,3 -20,0 0,-3"
     id="Sketch017_w0006" />
  <circle
     id="circle15"
     style="fill:none;stroke:#ff0000;stroke-width:0.34999999;stroke-miterlimit:4;stroke-dasharray:none"
     r="1.5"
     cy="-510.03421"
     cx="248.35651"
     transform="scale(1,-1)" />
  <circle
     id="circle17"
     style="fill:none;stroke:#ff0000;stroke-width:0.34999999;stroke-miterlimit:4;stroke-dasharray:none"
     r="1.5"
     cy="-510.03421"
     cx="407.35651"
     transform="scale(1,-1)" />
  <path
     inkscape:connector-curvature="0"
     style="fill:none;fill-rule:evenodd;stroke:#0000ff;stroke-width:0.34999999;stroke-miterlimit:4;stroke-dasharray:none"
     d="m 364.89415,415.68589 -2,0 a 80,80 0 0 1 -15.975,46 l 0,34.5 63,0 0,-165 -63,0 0,34.5 a 80,80 0 0 1 15.975,46 l 2,0 a 2,2 0 0 1 0,4"
     id="Sketch018_w0000" />
  <path
     inkscape:connector-curvature="0"
     style="fill:none;fill-rule:evenodd;stroke:#ff0000;stroke-width:0.34999999;stroke-miterlimit:4;stroke-dasharray:none"
     d="m 395.58582,494.68589 -10,0 0,-3 10,0 0,3"
     id="Sketch018_w0001" />
  <path
     inkscape:connector-curvature="0"
     style="fill:none;fill-rule:evenodd;stroke:#ff0000;stroke-width:0.34999999;stroke-miterlimit:4;stroke-dasharray:none"
     d="m 371.25248,494.68589 -10,0 0,-3 10,0 0,3"
     id="Sketch018_w0002" />
  <path
     inkscape:connector-curvature="0"
     style="fill:none;fill-rule:evenodd;stroke:#ff0000;stroke-width:0.34999999;stroke-miterlimit:4;stroke-dasharray:none"
     d="m 395.58582,335.68589 -10,0 0,-3 10,0 0,3"
     id="Sketch018_w0003" />
  <path
     inkscape:connector-curvature="0"
     style="fill:none;fill-rule:evenodd;stroke:#ff0000;stroke-width:0.34999999;stroke-miterlimit:4;stroke-dasharray:none"
     d="m 371.25248,335.68589 -10,0 0,-3 10,0 0,3"
     id="Sketch018_w0004" />
  <circle
     id="circle27"
     style="fill:none;stroke:#ff0000;stroke-width:0.34999999;stroke-miterlimit:4;stroke-dasharray:none"
     r="1.5"
     cy="493.18588"
     cx="-378.41916"
     transform="scale(-1,1)" />
  <circle
     id="circle29"
     style="fill:none;stroke:#ff0000;stroke-width:0.34999999;stroke-miterlimit:4;stroke-dasharray:none"
     r="1.5"
     cy="334.18588"
     cx="-378.41916"
     transform="scale(-1,1)" />
  <path
     inkscape:connector-curvature="0"
     style="fill:none;fill-rule:evenodd;stroke:#ff0000;stroke-width:0.34999999;stroke-miterlimit:4;stroke-dasharray:none"
     d="m 406.91915,487.68589 -2,0 0,-4 2,0 0,4"
     id="Sketch018_w0007" />
  <path
     inkscape:connector-curvature="0"
     style="fill:none;fill-rule:evenodd;stroke:#ff0000;stroke-width:0.34999999;stroke-miterlimit:4;stroke-dasharray:none"
     d="m 396.91915,487.68589 -2,0 0,-4 2,0 0,4"
     id="Sketch018_w0008" />
  <circle
     id="circle33"
     style="fill:none;stroke:#ff0000;stroke-width:0.34999999;stroke-miterlimit:4;stroke-dasharray:none"
     r="1.5"
     cy="413.68588"
     cx="-389.89413"
     transform="scale(-1,1)" />
  <circle
     id="circle35"
     style="fill:none;stroke:#ff0000;stroke-width:0.34999999;stroke-miterlimit:4;stroke-dasharray:none"
     r="1.5"
     cy="436.18588"
     cx="-364.89413"
     transform="scale(-1,1)" />
  <circle
     id="circle37"
     style="fill:none;stroke:#ff0000;stroke-width:0.34999999;stroke-miterlimit:4;stroke-dasharray:none"
     r="1.5"
     cy="391.18588"
     cx="-364.89413"
     transform="scale(-1,1)" />
  <path
     inkscape:connector-curvature="0"
     style="fill:none;fill-rule:evenodd;stroke:#0000ff;stroke-width:0.34999999;stroke-miterlimit:4;stroke-dasharray:none"
     d="m 165.83486,2.70789 -11,0 0,320 11,0 0,-320"
     id="Sketch008_w0000" />
  <path
     inkscape:connector-curvature="0"
     style="fill:none;fill-rule:evenodd;stroke:#ff0000;stroke-width:0.34999999;stroke-miterlimit:4;stroke-dasharray:none"
     d="m 158.83486,321.70789 4,0 0,-316 -4,0 0,316"
     id="Sketch008_w0001" />
  <path
     inkscape:connector-curvature="0"
     style="fill:none;fill-rule:evenodd;stroke:#ff0000;stroke-width:0.34999999;stroke-miterlimit:4;stroke-dasharray:none"
     d="m 306.62457,308.57445 a 1.4999999,1.5000002 0 0 0 0,-3 l -100,0 a 1.4999999,1.5000002 0 1 0 0,3 l 100,0"
     id="Sketch007_w0000" />
  <path
     inkscape:connector-curvature="0"
     style="fill:none;fill-rule:evenodd;stroke:#0000ff;stroke-width:0.34999999;stroke-miterlimit:4;stroke-dasharray:none"
     d="m 341.12456,171.07444 -24.99999,0 0,-3 -20,0 0,3 -28,0 0,-3 -20,0 0,3 -28,0 0,-3 -20,0 0,3 -27.99999,0 0,38.66667 -3,0 0,20 3,0 0,38.66667 -3,0 0,20 3,0 0,38.66667 27.99999,0 0,3 20,0 0,-3 28,0 0,3 20,0 0,-3 28,0 0,3 20,0 0,-3 24.99999,0 0,-38.66667 3,0 0,-20 -3,0 0,-38.66667 3,0 0,-20 -3,0 0,-38.66667"
     id="Sketch007_w0001" />
  <ellipse
     id="circle49"
     style="fill:none;stroke:#ff0000;stroke-width:0.34999999;stroke-miterlimit:4;stroke-dasharray:none"
     cy="275.02457"
     cx="184.67445"
     transform="matrix(0,1,1,0,0,0)"
     rx="1.2500001"
     ry="1.2499999" />
  <ellipse
     id="circle51"
     style="fill:none;stroke:#ff0000;stroke-width:0.34999999;stroke-miterlimit:4;stroke-dasharray:none"
     cy="275.02457"
     cx="212.57445"
     transform="matrix(0,1,1,0,0,0)"
     rx="1.2500001"
     ry="1.2499999" />
  <ellipse
     id="circle53"
     style="fill:none;stroke:#ff0000;stroke-width:0.34999999;stroke-miterlimit:4;stroke-dasharray:none"
     cy="325.82455"
     cx="227.77444"
     transform="matrix(0,1,1,0,0,0)"
     rx="1.2500001"
     ry="1.2499999" />
  <ellipse
     id="circle55"
     style="fill:none;stroke:#ff0000;stroke-width:0.34999999;stroke-miterlimit:4;stroke-dasharray:none"
     cy="325.82455"
     cx="179.57443"
     transform="matrix(0,1,1,0,0,0)"
     rx="1.2500001"
     ry="1.2499999" />
  <ellipse
     id="circle57"
     style="fill:none;stroke:#ff0000;stroke-width:0.34999999;stroke-miterlimit:4;stroke-dasharray:none"
     cy="316.12457"
     cx="249.07445"
     transform="matrix(0,1,1,0,0,0)"
     rx="2.0000002"
     ry="1.9999999" />
  <ellipse
     id="circle59"
     style="fill:none;stroke:#ff0000;stroke-width:0.34999999;stroke-miterlimit:4;stroke-dasharray:none"
     cy="197.12457"
     cx="196.07445"
     transform="matrix(0,1,1,0,0,0)"
     rx="2.0000002"
     ry="1.9999999" />
  <ellipse
     id="circle61"
     style="fill:none;stroke:#ff0000;stroke-width:0.34999999;stroke-miterlimit:4;stroke-dasharray:none"
     cy="197.12457"
     cx="302.07446"
     transform="matrix(0,1,1,0,0,0)"
     rx="2.0000002"
     ry="1.9999999" />
  <path
     inkscape:connector-curvature="0"
     style="fill:none;fill-rule:evenodd;stroke:#0000ff;stroke-width:0.34999999;stroke-miterlimit:4;stroke-dasharray:none"
     d="m 398.73104,170.52301 0,3 3,0 0,150.00001 -3,0 0,3 -11,0 0,3 -20,0 0,-3 -20,0 0,-156.00001 5,0 0,4 8,0 0,-4 7,0 0,-3 20,0 0,3 11,0"
     id="Sketch006_w0000" />
  <path
     inkscape:connector-curvature="0"
     style="fill:none;fill-rule:evenodd;stroke:#ff0000;stroke-width:0.34999999;stroke-miterlimit:4;stroke-dasharray:none"
     d="m 352.73104,209.18968 0,20 -3,0 0,-20 3,0"
     id="Sketch006_w0001" />
  <path
     inkscape:connector-curvature="0"
     style="fill:none;fill-rule:evenodd;stroke:#ff0000;stroke-width:0.34999999;stroke-miterlimit:4;stroke-dasharray:none"
     d="m 352.73104,267.85635 0,20 -3,0 0,-20 3,0"
     id="Sketch006_w0002" />
  <path
     inkscape:connector-curvature="0"
     style="fill:none;fill-rule:evenodd;stroke:#0000ff;stroke-width:0.34999999;stroke-miterlimit:4;stroke-dasharray:none"
     d="m 235.79769,44.920632 0,20.000002 -3,0 0,40.000006 3,0 0,20 -3,0 0,38 -21.5,0 0,3 -19.99999,0 0,-3 -21.5,0 0,-156.0000122 21.5,0 0,-3.0000003 19.99999,0 0,3.0000003 21.5,0 0,38.0000042 3,0"
     id="Sketch005_w0000" />
  <path
     inkscape:connector-curvature="0"
     style="fill:none;fill-rule:evenodd;stroke:#ff0000;stroke-width:0.34999999;stroke-miterlimit:4;stroke-dasharray:none"
     d="m 191.7977,143.92064 0,10 -12,0 0,-10 12,0"
     id="Sketch005_w0001" />
  <path
     inkscape:connector-curvature="0"
     style="fill:none;fill-rule:evenodd;stroke:#ff0000;stroke-width:0.34999999;stroke-miterlimit:4;stroke-dasharray:none"
     d="m 174.7977,45.587298 0,20.000003 -3,0 0,-20.000003 3,0"
     id="Sketch005_w0002" />
  <path
     inkscape:connector-curvature="0"
     style="fill:none;fill-rule:evenodd;stroke:#ff0000;stroke-width:0.34999999;stroke-miterlimit:4;stroke-dasharray:none"
     d="m 174.7977,104.25397 0,20 -3,0 0,-20 3,0"
     id="Sketch005_w0003" />
  <path
     inkscape:connector-curvature="0"
     style="fill:none;fill-rule:evenodd;stroke:#ff0000;stroke-width:0.34999999;stroke-miterlimit:4;stroke-dasharray:none"
     d="m 184.7977,112.92064 0,13 -5,0 0,-13 5,0"
     id="Sketch005_w0004" />
  <ellipse
     id="circle77"
     style="fill:none;stroke:#ff0000;stroke-width:0.34999999;stroke-miterlimit:4;stroke-dasharray:none"
     cy="189.7977"
     cx="92.920639"
     transform="matrix(0,1,1,0,0,0)"
     rx="6.0000005"
     ry="5.9999995" />
  <path
     inkscape:connector-curvature="0"
     style="fill:none;fill-rule:evenodd;stroke:#0000ff;stroke-width:0.34999999;stroke-miterlimit:4;stroke-dasharray:none"
     d="m 238.41602,162.18805 0,-155 165,0 0,155 a 3,3 0 0 1 -3,3 l -159,0 a 3,3 0 0 1 -3,-3"
     id="Sketch004_w0000" />
  <path
     inkscape:connector-curvature="0"
     style="fill:none;fill-rule:evenodd;stroke:#ff0000;stroke-width:0.34999999;stroke-miterlimit:4;stroke-dasharray:none"
     d="m 239.91602,46.18805 3,0 0,20 -3,0 0,-20"
     id="Sketch004_w0001" />
  <path
     inkscape:connector-curvature="0"
     style="fill:none;fill-rule:evenodd;stroke:#ff0000;stroke-width:0.34999999;stroke-miterlimit:4;stroke-dasharray:none"
     d="m 239.91602,106.18805 3,0 0,20 -3,0 0,-20"
     id="Sketch004_w0002" />
  <path
     inkscape:connector-curvature="0"
     style="fill:none;fill-rule:evenodd;stroke:#ff0000;stroke-width:0.34999999;stroke-miterlimit:4;stroke-dasharray:none"
     d="m 398.91602,46.18805 3,0 0,20 -3,0 0,-20"
     id="Sketch004_w0003" />
  <path
     inkscape:connector-curvature="0"
     style="fill:none;fill-rule:evenodd;stroke:#ff0000;stroke-width:0.34999999;stroke-miterlimit:4;stroke-dasharray:none"
     d="m 398.91602,106.18805 3,0 0,20 -3,0 0,-20"
     id="Sketch004_w0004" />
  <circle
     id="circle87"
     style="fill:none;stroke:#ff0000;stroke-width:0.34999999;stroke-miterlimit:4;stroke-dasharray:none"
     r="1.5"
     cy="-145.18805"
     cx="241.41602"
     transform="scale(1,-1)" />
  <circle
     id="circle89"
     style="fill:none;stroke:#ff0000;stroke-width:0.34999999;stroke-miterlimit:4;stroke-dasharray:none"
     r="1.5"
     cy="-27.188049"
     cx="241.41602"
     transform="scale(1,-1)" />
  <circle
     id="circle91"
     style="fill:none;stroke:#ff0000;stroke-width:0.34999999;stroke-miterlimit:4;stroke-dasharray:none"
     r="1.5"
     cy="-27.188049"
     cx="400.41602"
     transform="scale(1,-1)" />
  <circle
     id="circle93"
     style="fill:none;stroke:#ff0000;stroke-width:0.34999999;stroke-miterlimit:4;stroke-dasharray:none"
     r="1.5"
     cy="-145.18805"
     cx="400.41602"
     transform="scale(1,-1)" />
  <circle
     id="circle98"
     style="fill:none;stroke:#0000ff;stroke-width:0.34999999;stroke-miterlimit:4;stroke-dasharray:none"
     r="75"
     cy="-545.99677"
     cx="171.92519"
     transform="scale(1,-1)" />
  <circle
     id="circle100"
     style="fill:none;stroke:#0000ff;stroke-width:0.34999999;stroke-miterlimit:4;stroke-dasharray:none"
     r="70"
     cy="-545.99677"
     cx="171.92519"
     transform="scale(1,-1)" />
  <circle
     id="circle117"
     style="fill:none;stroke:#ff0000;stroke-width:0.34999999;stroke-miterlimit:4;stroke-dasharray:none"
     r="1.25"
     cy="-511.77798"
     cx="107.44203"
     transform="scale(1,-1)" />
  <circle
     id="circle119"
     style="fill:none;stroke:#ff0000;stroke-width:0.34999999;stroke-miterlimit:4;stroke-dasharray:none"
     r="1.25"
     cy="-500.8829"
     cx="114.53407"
     transform="scale(1,-1)" />
  <circle
     id="circle121"
     style="fill:none;stroke:#ff0000;stroke-width:0.34999999;stroke-miterlimit:4;stroke-dasharray:none"
     r="1.25"
     cy="-591.1106"
     cx="229.3163"
     transform="scale(1,-1)" />
  <circle
     id="circle123"
     style="fill:none;stroke:#ff0000;stroke-width:0.34999999;stroke-miterlimit:4;stroke-dasharray:none"
     r="1.25"
     cy="-580.21552"
     cx="236.40834"
     transform="scale(1,-1)" />
  <circle
     id="circle102"
     style="fill:none;stroke:#0000ff;stroke-width:0.34999999;stroke-miterlimit:4;stroke-dasharray:none"
     r="70"
     cy="-414.59848"
     cx="84.423019"
     transform="scale(1,-1)" />
  <circle
     id="circle104"
     style="fill:none;stroke:#0000ff;stroke-width:0.34999999;stroke-miterlimit:4;stroke-dasharray:none"
     r="80"
     cy="-414.59848"
     cx="84.423019"
     transform="scale(1,-1)" />
  <circle
     id="circle125"
     style="fill:none;stroke:#ff0000;stroke-width:0.34999999;stroke-miterlimit:4;stroke-dasharray:none"
     r="1.25"
     cy="-369.48462"
     cx="27.031879"
     transform="scale(1,-1)" />
  <circle
     id="circle127"
     style="fill:none;stroke:#ff0000;stroke-width:0.34999999;stroke-miterlimit:4;stroke-dasharray:none"
     r="1.25"
     cy="-360.02023"
     cx="35.943989"
     transform="scale(1,-1)" />
  <circle
     id="circle129"
     style="fill:none;stroke:#ff0000;stroke-width:0.34999999;stroke-miterlimit:4;stroke-dasharray:none"
     r="1.25"
     cy="-469.17667"
     cx="132.90202"
     transform="scale(1,-1)" />
  <circle
     id="circle131"
     style="fill:none;stroke:#ff0000;stroke-width:0.34999999;stroke-miterlimit:4;stroke-dasharray:none"
     r="1.25"
     cy="-459.71231"
     cx="141.81413"
     transform="scale(1,-1)" />
  <circle
     id="circle106"
     style="fill:none;stroke:#0000ff;stroke-width:0.34999999;stroke-miterlimit:4;stroke-dasharray:none"
     r="70"
     cy="-413.24484"
     cx="279.54666"
     transform="scale(1,-1)" />
  <path
     inkscape:connector-curvature="0"
     style="fill:none;fill-rule:evenodd;stroke:#0000ff;stroke-width:0.34999999;stroke-miterlimit:4;stroke-dasharray:none"
     d="m 208.88018,450.74484 a 80,80 0 1 0 0,-75 l -39.67404,19.81615 a 3,3 0 0 0 -1.65949,2.68385 l 0,30 a 3,3 0 0 0 1.65949,2.68385 l 39.67404,19.81615"
     id="Sketch001_w0005" />
  <circle
     id="circle109"
     style="fill:none;stroke:#ff0000;stroke-width:0.34999999;stroke-miterlimit:4;stroke-dasharray:none"
     r="2"
     cy="-413.24484"
     cx="202.54665"
     transform="scale(1,-1)" />
  <circle
     id="circle111"
     style="fill:none;stroke:#ff0000;stroke-width:0.34999999;stroke-miterlimit:4;stroke-dasharray:none"
     r="2"
     cy="-413.24484"
     cx="197.54665"
     transform="scale(1,-1)" />
  <path
     inkscape:connector-curvature="0"
     style="fill:none;fill-rule:evenodd;stroke:#ff0000;stroke-width:0.34999999;stroke-miterlimit:4;stroke-dasharray:none"
     d="m 217.37142,378.94361 -1.22539,-1.95749 -2.30793,0.0825 -1.08253,2.03997 1.22539,1.95748 2.30793,-0.0825 1.08253,-2.03996"
     id="Sketch001_w0008" />
  <path
     inkscape:connector-curvature="0"
     style="fill:none;fill-rule:evenodd;stroke:#ff0000;stroke-width:0.34999999;stroke-miterlimit:4;stroke-dasharray:none"
     d="m 223.01428,370.27479 1.42721,-1.8156 -0.85876,-2.1438 -2.28596,-0.32819 -1.4272,1.8156 0.85875,2.1438 2.28596,0.32819"
     id="Sketch001_w0009" />
  <path
     inkscape:connector-curvature="0"
     style="fill:none;fill-rule:evenodd;stroke:#ff0000;stroke-width:0.34999999;stroke-miterlimit:4;stroke-dasharray:none"
     d="m 346.33773,447.38111 -1.22539,-1.95749 -2.30793,0.0825 -1.08253,2.03996 1.22539,1.95749 2.30793,-0.0825 1.08253,-2.03996"
     id="Sketch001_w0010" />
  <path
     inkscape:connector-curvature="0"
     style="fill:none;fill-rule:evenodd;stroke:#ff0000;stroke-width:0.34999999;stroke-miterlimit:4;stroke-dasharray:none"
     d="m 339.22373,458.68688 -0.85875,-2.1438 -2.28596,-0.32819 -1.42721,1.8156 0.85876,2.1438 2.28596,0.32819 1.4272,-1.8156"
     id="Sketch001_w0011" />
  <circle
     id="circle133"
     style="fill:none;stroke:#ff0000;stroke-width:0.34999999;stroke-miterlimit:4;stroke-dasharray:none"
     r="1.5"
     cy="-390.74481"
     cx="197.54665"
     transform="scale(1,-1)" />
  <circle
     id="circle135"
     style="fill:none;stroke:#ff0000;stroke-width:0.34999999;stroke-miterlimit:4;stroke-dasharray:none"
     r="1.5"
     cy="-435.74484"
     cx="197.54665"
     transform="scale(1,-1)" />
  <circle
     id="circle137"
     style="fill:none;stroke:#ff0000;stroke-width:0.34999999;stroke-miterlimit:4;stroke-dasharray:none"
     r="1.5"
     cy="-413.24484"
     cx="172.54665"
     transform="scale(1,-1)" />
  <path
     inkscape:connector-curvature="0"
     style="fill:none;fill-rule:evenodd;stroke:#0000ff;stroke-width:0.34999999;stroke-miterlimit:4;stroke-dasharray:none"
     d="m 18.494363,332.18808 10,0 0,-3 5.666667,0 0,-3 -1.25,0 0,-2 1.25,0 0,-12 3,0 0,12 1.25,0 0,2 -1.25,0 0,3 5.666667,0 0,3 10,0 0,-3 14.333333,0 0,-167 -11.033822,0 0,1.25 -2,0 0,-1.25 -3.966178,0 0,-3 3.966178,0 0,-1.25 2,0 0,1.25 11.033822,0 0,-17.5 3,0 0,-20 -3,0 0,-40 3,0 0,-20 -3,0 0,-17.5 -11,0 0,1.25 -2,0 0,-1.25 -4,0 0,-3 4,0 0,-1.25 2,0 0,1.25 11,0 0,-27 -11,0 0,1.25 -2,0 0,-1.25 -4,0 0,-3 4,0 0,-1.25 2,0 0,1.25 11,0 0,-8.5 -63.0000004,0 0,326.5 14.3333334,0 0,3"
     id="Sketch_w0000" />
  <path
     inkscape:connector-curvature="0"
     style="fill:none;fill-rule:evenodd;stroke:#ff0000;stroke-width:0.34999999;stroke-miterlimit:4;stroke-dasharray:none"
     d="m 25.66103,176.18808 20,0 0,3 -20,0 0,-3"
     id="Sketch_w0001" />
  <path
     inkscape:connector-curvature="0"
     style="fill:none;fill-rule:evenodd;stroke:#ff0000;stroke-width:0.34999999;stroke-miterlimit:4;stroke-dasharray:none"
     d="m 25.66103,4.18808 0,3 20,0 0,-3 -20,0"
     id="Sketch_w0002" />
  <path
     inkscape:connector-curvature="0"
     style="fill:none;fill-rule:evenodd;stroke:#ff0000;stroke-width:0.34999999;stroke-miterlimit:4;stroke-dasharray:none"
     d="m 6.1610296,32.18808 3,0 0,20 -3,0 0,-20"
     id="Sketch_w0003" />
  <path
     inkscape:connector-curvature="0"
     style="fill:none;fill-rule:evenodd;stroke:#ff0000;stroke-width:0.34999999;stroke-miterlimit:4;stroke-dasharray:none"
     d="m 6.1610296,80.18808 3,0 0,20 -3,0 0,-20"
     id="Sketch_w0004" />
  <path
     inkscape:connector-curvature="0"
     style="fill:none;fill-rule:evenodd;stroke:#ff0000;stroke-width:0.34999999;stroke-miterlimit:4;stroke-dasharray:none"
     d="m 6.1610296,128.18808 3,0 0,20 -3,0 0,-20"
     id="Sketch_w0005" />
  <path
     inkscape:connector-curvature="0"
     style="fill:none;fill-rule:evenodd;stroke:#ff0000;stroke-width:0.34999999;stroke-miterlimit:4;stroke-dasharray:none"
     d="m 6.1610296,213.68808 2,0 0,4 -2,0 0,-4"
     id="Sketch_w0006" />
  <path
     inkscape:connector-curvature="0"
     style="fill:none;fill-rule:evenodd;stroke:#ff0000;stroke-width:0.34999999;stroke-miterlimit:4;stroke-dasharray:none"
     d="m 6.1610296,252.18808 2,0 0,4 -2,0 0,-4"
     id="Sketch_w0007" />
  <path
     inkscape:connector-curvature="0"
     style="fill:none;fill-rule:evenodd;stroke:#ff0000;stroke-width:0.34999999;stroke-miterlimit:4;stroke-dasharray:none"
     d="m 6.1610296,290.68808 2,0 0,4 -2,0 0,-4"
     id="Sketch_w0008" />
  <path
     inkscape:connector-curvature="0"
     style="fill:none;fill-rule:evenodd;stroke:#ff0000;stroke-width:0.34999999;stroke-miterlimit:4;stroke-dasharray:none"
     d="m 16.16103,213.68808 2,0 0,4 -2,0 0,-4"
     id="Sketch_w0009" />
  <path
     inkscape:connector-curvature="0"
     style="fill:none;fill-rule:evenodd;stroke:#ff0000;stroke-width:0.34999999;stroke-miterlimit:4;stroke-dasharray:none"
     d="m 16.16103,252.18808 2,0 0,4 -2,0 0,-4"
     id="Sketch_w0010" />
  <path
     inkscape:connector-curvature="0"
     style="fill:none;fill-rule:evenodd;stroke:#ff0000;stroke-width:0.34999999;stroke-miterlimit:4;stroke-dasharray:none"
     d="m 16.16103,290.68808 2,0 0,4 -2,0 0,-4"
     id="Sketch_w0011" />
  <circle
     id="circle154"
     style="fill:none;stroke:#ff0000;stroke-width:0.34999999;stroke-miterlimit:4;stroke-dasharray:none"
     r="1.5"
     cy="-254.18808"
     cx="30.16103"
     transform="scale(1,-1)" />
  <circle
     id="circle156"
     style="fill:none;stroke:#ff0000;stroke-width:0.34999999;stroke-miterlimit:4;stroke-dasharray:none"
     r="1.5"
     cy="-231.68808"
     cx="55.16103"
     transform="scale(1,-1)" />
  <circle
     id="circle158"
     style="fill:none;stroke:#ff0000;stroke-width:0.34999999;stroke-miterlimit:4;stroke-dasharray:none"
     r="1.5"
     cy="-276.68808"
     cx="55.16103"
     transform="scale(1,-1)" />
  <path
     inkscape:connector-curvature="0"
     style="fill:none;fill-rule:evenodd;stroke:#ff0000;stroke-width:0.34999999;stroke-miterlimit:4;stroke-dasharray:none"
     d="m 55.16103,252.18808 a 2,2 0 1 0 0,4 l 6,0 a 2,2 0 0 0 0,-4 l -6,0"
     id="Sketch_w0015" />
  <path
     style="fill:none;fill-rule:evenodd;stroke:#0000ff;stroke-width:0.34999999;stroke-miterlimit:4;stroke-dasharray:none"
     d="m 140.7198,2.4348732 11,0 0,319.9999968 -11,0 0,-319.9999968"
     id="Sketch008_w0000-6"
     inkscape:connector-curvature="0" />
  <path
     style="fill:none;fill-rule:evenodd;stroke:#ff0000;stroke-width:0.34999999;stroke-miterlimit:4;stroke-dasharray:none"
     d="m 147.7198,321.43487 -4,0 0,-315.9999968 4,0 0,315.9999968"
     id="Sketch008_w0001-7"
     inkscape:connector-curvature="0" />
  <path
     style="fill:none;fill-rule:evenodd;stroke:#0000ff;stroke-width:0.34999999;stroke-miterlimit:4;stroke-dasharray:none"
     d="m 123.53733,332.30596 -10,0 0,-3 -5.66667,0 0,-3 1.25,0 0,-2 -1.25,0 0,-12 -3,0 0,12 -1.25,0 0,2 1.25,0 0,3 -5.666667,0 0,3 -10,0 0,-3 -14.333333,0 0,-167 11.033822,0 0,1.25 2,0 0,-1.25 3.966178,0 0,-3 -3.966178,0 0,-1.25 -2,0 0,1.25 -11.033822,0 0,-17.5 -3,0 0,-20 3,0 0,-39.999997 -3,0 0,-20 3,0 0,-17.5 11,0 0,1.25 2,0 0,-1.25 4,0 0,-3 -4,0 0,-1.25 -2,0 0,1.25 -11,0 0,-27 11,0 0,1.25 2,0 0,-1.25 4,0 0,-3 -4,0 0,-1.25 -2,0 0,1.25 -11,0 0,-8.4999997 63,0 0,326.4999967 -14.33333,0 0,3"
     id="Sketch_w0000-5"
     inkscape:connector-curvature="0" />
  <path
     style="fill:none;fill-rule:evenodd;stroke:#ff0000;stroke-width:0.34999999;stroke-miterlimit:4;stroke-dasharray:none"
     d="m 116.37066,176.30596 -20,0 0,3 20,0 0,-3"
     id="Sketch_w0001-6"
     inkscape:connector-curvature="0" />
  <path
     style="fill:none;fill-rule:evenodd;stroke:#ff0000;stroke-width:0.34999999;stroke-miterlimit:4;stroke-dasharray:none"
     d="m 116.37066,4.3059633 0,3 -20,0 0,-3 20,0"
     id="Sketch_w0002-2"
     inkscape:connector-curvature="0" />
  <path
     style="fill:none;fill-rule:evenodd;stroke:#ff0000;stroke-width:0.34999999;stroke-miterlimit:4;stroke-dasharray:none"
     d="m 135.87066,32.305963 -3,0 0,20 3,0 0,-20"
     id="Sketch_w0003-9"
     inkscape:connector-curvature="0" />
  <path
     style="fill:none;fill-rule:evenodd;stroke:#ff0000;stroke-width:0.34999999;stroke-miterlimit:4;stroke-dasharray:none"
     d="m 135.87066,80.305963 -3,0 0,19.999997 3,0 0,-19.999997"
     id="Sketch_w0004-1"
     inkscape:connector-curvature="0" />
  <path
     style="fill:none;fill-rule:evenodd;stroke:#ff0000;stroke-width:0.34999999;stroke-miterlimit:4;stroke-dasharray:none"
     d="m 135.87066,128.30596 -3,0 0,20 3,0 0,-20"
     id="Sketch_w0005-2"
     inkscape:connector-curvature="0" />
  <path
     style="fill:none;fill-rule:evenodd;stroke:#ff0000;stroke-width:0.34999999;stroke-miterlimit:4;stroke-dasharray:none"
     d="m 135.87066,213.80596 -2,0 0,4 2,0 0,-4"
     id="Sketch_w0006-7"
     inkscape:connector-curvature="0" />
  <path
     style="fill:none;fill-rule:evenodd;stroke:#ff0000;stroke-width:0.34999999;stroke-miterlimit:4;stroke-dasharray:none"
     d="m 135.87066,252.30596 -2,0 0,4 2,0 0,-4"
     id="Sketch_w0007-0"
     inkscape:connector-curvature="0" />
  <path
     style="fill:none;fill-rule:evenodd;stroke:#ff0000;stroke-width:0.34999999;stroke-miterlimit:4;stroke-dasharray:none"
     d="m 135.87066,290.80596 -2,0 0,4 2,0 0,-4"
     id="Sketch_w0008-9"
     inkscape:connector-curvature="0" />
  <path
     style="fill:none;fill-rule:evenodd;stroke:#ff0000;stroke-width:0.34999999;stroke-miterlimit:4;stroke-dasharray:none"
     d="m 125.87066,213.80596 -2,0 0,4 2,0 0,-4"
     id="Sketch_w0009-3"
     inkscape:connector-curvature="0" />
  <path
     style="fill:none;fill-rule:evenodd;stroke:#ff0000;stroke-width:0.34999999;stroke-miterlimit:4;stroke-dasharray:none"
     d="m 125.87066,252.30596 -2,0 0,4 2,0 0,-4"
     id="Sketch_w0010-6"
     inkscape:connector-curvature="0" />
  <path
     style="fill:none;fill-rule:evenodd;stroke:#ff0000;stroke-width:0.34999999;stroke-miterlimit:4;stroke-dasharray:none"
     d="m 125.87066,290.80596 -2,0 0,4 2,0 0,-4"
     id="Sketch_w0011-0"
     inkscape:connector-curvature="0" />
  <circle
     id="circle154-6"
     style="fill:none;stroke:#ff0000;stroke-width:0.34999999;stroke-miterlimit:4;stroke-dasharray:none"
     r="1.5"
     cy="-254.30595"
     cx="-111.87066"
     transform="scale(-1,-1)" />
  <circle
     id="circle156-2"
     style="fill:none;stroke:#ff0000;stroke-width:0.34999999;stroke-miterlimit:4;stroke-dasharray:none"
     r="1.5"
     cy="-231.80595"
     cx="-86.870659"
     transform="scale(-1,-1)" />
  <circle
     id="circle158-6"
     style="fill:none;stroke:#ff0000;stroke-width:0.34999999;stroke-miterlimit:4;stroke-dasharray:none"
     r="1.5"
     cy="-276.80597"
     cx="-86.870659"
     transform="scale(-1,-1)" />
  <path
     style="fill:none;fill-rule:evenodd;stroke:#ff0000;stroke-width:0.34999999;stroke-miterlimit:4;stroke-dasharray:none"
     d="m 86.87066,252.30596 a 2,2 0 0 1 0,4 l -6,0 a 2,2 0 1 1 0,-4 l 6,0"
     id="Sketch_w0015-1"
     inkscape:connector-curvature="0" />
</svg>
